{
  "listaClientes": [
    {
      "Nombre": "sda",
      "Apellidos": "ad",
      "Email": "sdasd",
      "Celular": "25886",
      "Hora": "20:49",
      "Servicio": "Pagina Web",
      "Fecha": "2022-06-15T04:00:00.000Z",
      "Descripcion": "adsfsdf",
      "id": 1
    }
  ],
  "comments": [
    {
      "id": 1,
      "body": "some comment",
      "postId": 1
    }
  ],
  "profile": {
    "name": "typicode"
  }
}